…
    ## Warning: There were 44 warnings in `mutate()`.
    ## The first warning was:
    ## ℹ In argument: `tidy_results = purrr::map(model, ~broom::tidy(.x, conf.int =
    ##   TRUE, exponentiate = TRUE))`.
    ## ℹ In group 1: `city_state = "Albuquerque, NM"`.
    ## Caused by warning:
    ## ! glm.fit: fitted probabilities numerically 0 or 1 occurred
    ## ℹ Run `dplyr::last_dplyr_warnings()` to see the 43 remaining warnings.

``` r
# View the results
city_results
```

    ## # A tibble: 47 × 5
    ## # Groups:   city_state [47]
    ##    city_state      estimate conf.low conf.high  p.value
    ##    <chr>              <dbl>    <dbl>     <dbl>    <dbl>
    ##  1 Albuquerque, NM    0.430   0.132      1.16  1.22e- 1
    ##  2 Atlanta, GA        0.512   0.323      0.789 3.22e- 3
    ##  3 Baltimore, MD      0.355   0.267      0.468 3.74e-13
    ##  4 Baton Rouge, LA    0.319   0.160      0.596 5.87e- 4
    ##  5 Birmingham, AL     0.704   0.444      1.09  1.25e- 1
    ##  6 Boston, MA         0.674   0.353      1.28  2.26e- 1
    ##  7 Buffalo, NY        0.438   0.239      0.793 6.78e- 3
    ##  8 Charlotte, NC      0.301   0.143      0.572 6.16e- 4
    ##  9 Chicago, IL        0.391   0.321      0.476 9.40e-21
    ## 10 Cincinnati, OH     0.206   0.0977     0.390 5.98e- 6
    ## # ℹ 37 more rows
…
